<?xml version="1.0" standalone="no"?>
<!DOCTYPE svg PUBLIC "-//W3C//DTD SVG 1.1//EN" "http://www.w3.org/Graphics/SVG/1.1/DTD/svg11.dtd" >
<!--
2017-10-4: Created with FontForge (http://fontforge.org)
-->
<svg xmlns="http://www.w3.org/2000/svg" xmlns:xlink="http://www.w3.org/1999/xlink" version="1.1">
<metadata>
Created by FontForge 20160405 at Wed Oct  4 04:17:24 2017
 By Apache
Copyright (c) 2017, Apache
</metadata>
<defs>
<font id="Flaticon" horiz-adv-x="512" >
  <font-face 
    font-family="Flaticon"
    font-weight="400"
    font-stretch="normal"
    units-per-em="512"
    panose-1="2 0 5 3 0 0 0 0 0 0"
    ascent="448"
    descent="-64"
    bbox="0 -64 512 448"
    underline-thickness="25.6"
    underline-position="-51.2"
    unicode-range="U+0020-F103"
  />
    <missing-glyph />
    <glyph glyph-name="space" unicode=" " horiz-adv-x="200" 
 />
    <glyph glyph-name="uniF101" unicode="&#xf101;" 
d="M373.659 448c76.2812 0 138.341 -62.0596 138.341 -138.341v-235.318c0 -76.2812 -62.0596 -138.341 -138.341 -138.341h-235.318c-76.2812 0 -138.341 62.0596 -138.341 138.341v235.318c0 76.2812 62.0596 138.341 138.341 138.341h235.318zM470.636 74.3408v235.318
c0 53.4736 -43.5039 96.9766 -96.9766 96.9766h-235.318c-53.4736 0 -96.9766 -43.5039 -96.9766 -96.9766v-235.318c0 -53.4736 43.5039 -96.9766 96.9766 -96.9766h235.318c53.4736 0 96.9766 43.5039 96.9766 96.9766zM370.586 209.859
c4.49902 -30.335 -3.08594 -60.6064 -21.3555 -85.2363c-18.2695 -24.6309 -45.0361 -40.6729 -75.3721 -45.1719c-5.70801 -0.847656 -11.416 -1.26562 -17.083 -1.26562c-24.4473 0 -48.1572 7.78809 -68.1533 22.6191
c-24.6309 18.2705 -40.6729 45.0371 -45.1719 75.3721c-4.49902 30.334 3.08594 60.6064 21.3545 85.2373c18.2695 24.6309 45.0361 40.6729 75.3721 45.1719c11.1748 1.65723 22.5059 1.65723 33.6826 0c24.5459 -3.63867 46.7939 -14.8389 64.3408 -32.3848
c17.5469 -17.5469 28.7461 -39.7949 32.3857 -64.3418zM267.791 120.368c40.0596 5.93945 67.8174 43.3643 61.877 83.4219c-4.78027 32.2324 -29.6465 57.0977 -61.8779 61.877c-3.57422 0.53125 -7.17383 0.795898 -10.7734 0.795898
c-3.59863 0 -7.19727 -0.264648 -10.7715 -0.794922c-19.4062 -2.87793 -36.5293 -13.1396 -48.2168 -28.8965c-11.6875 -15.7578 -16.5381 -35.1221 -13.6602 -54.5273c2.87695 -19.4053 13.1387 -36.5293 28.8955 -48.2158
c15.7578 -11.6875 35.1221 -16.542 54.5273 -13.6602zM400.049 336.049c3.85156 -3.85059 6.05859 -9.18164 6.05859 -14.625c0 -5.44141 -2.20703 -10.7725 -6.05859 -14.625c-3.85156 -3.85156 -9.18262 -6.05762 -14.625 -6.05762
c-5.44141 0 -10.7725 2.20703 -14.625 6.05762c-3.85059 3.85254 -6.05762 9.17383 -6.05762 14.625s2.20703 10.7734 6.05762 14.625c3.85254 3.85254 9.18359 6.05859 14.625 6.05859c5.44238 0 10.7734 -2.20703 14.625 -6.05859z" />
    <glyph glyph-name="uniF103" unicode="&#xf103;" 
d="M188.177 348.841c0 12.8799 -2.62207 99.1641 108.701 99.1582h78.5898v-89.7373h-57.8008c-11.4326 0 -23 -11.8486 -23 -20.6582v-58.9365h80.6895c-3.23242 -45.1914 -9.89941 -86.5234 -9.89941 -86.5234h-71.1914v-256.143h-106.089v256.15h-51.6445v86.1982
h51.6445v70.4912z" />
    <glyph glyph-name="uniF102" unicode="&#xf102;" 
d="M503.152 313.027c8.92188 -38.7773 8.84766 -81.1055 8.84766 -121.03c0 -39.9189 -0.03125 -82.2422 -8.95801 -121.02c-6.26855 -27.2285 -28.5459 -47.3174 -55.3408 -50.3145c-63.4805 -7.09277 -127.732 -7.12988 -191.72 -7.09277
c-63.9766 -0.0371094 -128.244 0 -191.729 7.09277c-26.8115 3.00195 -49.0732 23.0908 -55.3311 50.3145c-8.9209 38.7725 -8.9209 81.0957 -8.9209 121.02c0 39.9248 0.100586 82.2529 9.02148 121.03c6.26855 27.2295 28.5244 47.3184 55.3203 50.3154
c63.4902 7.08691 127.764 7.12402 191.74 7.08691c63.9658 0.0371094 128.229 0 191.719 -7.08691c26.8115 -2.99707 49.084 -23.0859 55.3516 -50.3154zM189.928 112.529c54.4053 28.2129 108.335 56.166 162.772 84.3994
c-54.6064 28.4863 -108.51 56.6094 -162.772 84.9219v-169.321z" />
    <glyph glyph-name="uniF100" unicode="&#xf100;" 
d="M256 448c141.156 0 256 -114.844 256 -256s-114.844 -256 -256 -256s-256 114.844 -256 256s114.844 256 256 256zM137.143 310.857c-5.05566 0 -9.14258 -4.09668 -9.14258 -9.14355s4.08691 -9.14258 9.14258 -9.14258h237.715
c5.05566 0 9.14258 4.0957 9.14258 9.14258s-4.08691 9.14355 -9.14258 9.14355h-237.715zM374.857 73.1426c5.05566 0 9.14258 4.09668 9.14258 9.14355s-4.08691 9.14258 -9.14258 9.14258h-237.715c-5.05566 0 -9.14258 -4.0957 -9.14258 -9.14258
s4.08691 -9.14355 9.14258 -9.14355h237.715zM411.429 146.286c5.05566 0 9.14258 4.0957 9.14258 9.14258s-4.08691 9.14258 -9.14258 9.14258h-310.857c-5.05566 0 -9.14258 -4.0957 -9.14258 -9.14258s4.08691 -9.14258 9.14258 -9.14258h310.857zM411.429 219.429
c5.05566 0 9.14258 4.0957 9.14258 9.14258s-4.08691 9.14258 -9.14258 9.14258h-310.857c-5.05566 0 -9.14258 -4.0957 -9.14258 -9.14258s4.08691 -9.14258 9.14258 -9.14258h310.857z" />
  </font>
</defs></svg>
